*** Life<ConwayCell> 16x38 ***

Generation = 0, Population = 46.
...*.....*.........**..........*......
...............*......................
...........................*..**.....*
......*...........*...............*...
......................*.*.............
.............*.........*..........*...
.......*...*....*........*...*........
....................*.................
.............................**.......
........*....................*......*.
...........*........*.................
.........*.....*..***.................
....*.................................
...*.*..*.....*.......................
..........*.........*.*...............
....*..............................*..

Generation = 1, Population = 18.
......................................
..............................**......
......................................
......................................
.......................*..............
.......................**.............
......................................
.............................**.......
.............................**.......
.............................**.......
....................*.................
...................**.................
....*..............*..................
....*.................................
....*.................................
......................................

Generation = 2, Population = 19.
......................................
......................................
......................................
......................................
.......................**.............
.......................**.............
......................................
.............................**.......
............................*..*......
.............................**.......
...................**.................
...................**.................
...................**.................
...***................................
......................................
......................................

Generation = 3, Population = 19.
......................................
......................................
......................................
......................................
.......................**.............
.......................**.............
......................................
.............................**.......
............................*..*......
.............................**.......
...................**.................
..................*..*................
....*..............**.................
....*.................................
....*.................................
......................................

*** Life<ConwayCell> 22x16 ***

Generation = 0, Population = 49.
....****..*.....
.*..*....*......
...............*
....*.....*.....
..*.....*.......
........*.......
................
....*.*......**.
..*...***.......
.**....*....***.
.....*...*......
..*.....*.......
.....*.......**.
................
....**..*.......
............*...
.......*........
................
............*...
.**.*..*........
.*........*.**..
................

Generation = 1, Population = 32.
....***.........
....*.*.........
................
................
.........*......
................
................
.....**.........
.***.**.*...*...
.**....*.....*..
.**.....*....*..
................
................
....**..........
................
................
................
................
................
.**........***..
.**.............
................

Generation = 2, Population = 28.
....*.*.........
....*.*.........
................
................
................
................
................
..*.****........
.*.***..........
*.....***...**..
.**.............
................
................
................
................
................
................
................
............*...
.**.........*...
.**.........*...
................

Generation = 3, Population = 23.
................
................
................
................
................
................
.....**.........
..*...*.........
.***....*.......
*..*****........
.*.....*........
................
................
................
................
................
................
................
................
.**........***..
.**.............
................

Generation = 4, Population = 26.
................
................
................
................
................
................
.....**.........
.***.***........
.*..............
*..******.......
....**.*........
................
................
................
................
................
................
................
............*...
.**.........*...
.**.........*...
................

*** Life<ConwayCell> 32x22 ***

Generation = 0, Population = 55.
.......*.....*........
...*..........*.....*.
.................*.*..
.........*.........*..
................*..*..
......*..*............
......................
......................
...*.........*........
.........*............
............*.........
......................
.................*...*
....*........*........
...**.................
......................
.*..*...*.............
....*.................
......................
.............*........
*........*.*..........
.................*...*
.*......*.*......*....
*...............*.....
.............***......
..*...................
...*..................
...........*........*.
*........*............
*....*..............*.
............*......*..
........*............*

Generation = 1, Population = 22.
......................
......................
..................***.
...................**.
......................
......................
......................
......................
......................
......................
......................
......................
......................
...**.................
...**.................
...**.................
......................
......................
......................
......................
......................
.........**...........
................**....
..............***.....
..............**......
..............*.......
......................
......................
......................
......................
....................*.
......................

Generation = 2, Population = 19.
......................
...................*..
..................*.*.
..................*.*.
......................
......................
......................
......................
......................
......................
......................
......................
......................
...**.................
..*..*................
...**.................
......................
......................
......................
......................
......................
......................
................**....
..............*..*....
.............*..*.....
..............**......
......................
......................
......................
......................
......................
......................

Generation = 3, Population = 17.
......................
...................*..
..................*.*.
......................
......................
......................
......................
......................
......................
......................
......................
......................
......................
...**.................
..*..*................
...**.................
......................
......................
......................
......................
......................
......................
................**....
...............*.*....
.............*..*.....
..............**......
......................
......................
......................
......................
......................
......................

Generation = 4, Population = 15.
......................
...................*..
...................*..
......................
......................
......................
......................
......................
......................
......................
......................
......................
......................
...**.................
..*..*................
...**.................
......................
......................
......................
......................
......................
......................
................**....
...............*.*....
................*.....
..............**......
......................
......................
......................
......................
......................
......................

Generation = 5, Population = 13.
......................
......................
......................
......................
......................
......................
......................
......................
......................
......................
......................
......................
......................
...**.................
..*..*................
...**.................
......................
......................
......................
......................
......................
......................
................**....
...............*.*....
..............*.*.....
...............*......
......................
......................
......................
......................
......................
......................

*** Life<ConwayCell> 22x57 ***

Generation = 0, Population = 44.
......*......................................*...........
..*.......*.......................*...........*..........
.........................................................
.................*....................................*..
.....................*.......*...........................
....*....*...............................................
..............................................*..........
........................*................................
*...........*.....................*......................
................................*........................
...................................*.....................
*.......*.....*..........................................
....*..................*....*.*...................*......
..........................*.....................*........
...................................................*.....
........*...............*.......*........................
............................*..........*.................
.........................................................
*...............*...............*.*....*.................
......................................*..................
.*....................*..................................
..........................................*..............

Generation = 1, Population = 0.
.........................................................
.........................................................
.........................................................
.........................................................
.........................................................
.........................................................
.........................................................
.........................................................
.........................................................
.........................................................
.........................................................
.........................................................
.........................................................
.........................................................
.........................................................
.........................................................
.........................................................
.........................................................
.........................................................
.........................................................
.........................................................
.........................................................

Generation = 2, Population = 0.
.........................................................
.........................................................
.........................................................
.........................................................
.........................................................
.........................................................
.........................................................
.........................................................
.........................................................
.........................................................
.........................................................
.........................................................
.........................................................
.........................................................
.........................................................
.........................................................
.........................................................
.........................................................
.........................................................
.........................................................
.........................................................
.........................................................

Generation = 3, Population = 0.
.........................................................
.........................................................
.........................................................
.........................................................
.........................................................
.........................................................
.........................................................
.........................................................
.........................................................
.........................................................
.........................................................
.........................................................
.........................................................
.........................................................
.........................................................
.........................................................
.........................................................
.........................................................
.........................................................
.........................................................
.........................................................
.........................................................

Generation = 4, Population = 0.
.........................................................
.........................................................
.........................................................
.........................................................
.........................................................
.........................................................
.........................................................
.........................................................
.........................................................
.........................................................
.........................................................
.........................................................
.........................................................
.........................................................
.........................................................
.........................................................
.........................................................
.........................................................
.........................................................
.........................................................
.........................................................
.........................................................

*** Life<ConwayCell> 11x45 ***

Generation = 0, Population = 65.
......*...*............*..*....*.............
...*.....*...**..........**.*.........**.....
*...*.*.....*.*..........*.....*...**........
.................*.....*............*....*...
...*.....*...*......**..*...........*........
.....*....................*..................
....*....*......**.......*...................
...*......*....**............*...............
....................*........................
.......*.....**......*.*....**.......*...*...
.......**.**.*.............*.....**....*.....

Generation = 1, Population = 46.
.........................***.................
.....*.......**.........****.................
..............*.........***........***.......
.............*..........*...........**.......
.............................................
....*....................*...................
....*..........***...........................
...............***...........................
..............**............**...............
.......**...***.............*................
.......**...***.............*................

Generation = 2, Population = 28.
........................*..*.................
.............**.....................*........
..............*........*...*.......*.*.......
........................*..........*.*.......
.............................................
................*............................
...............*.*...........................
.................*...........................
............................**...............
.......**...*..............**................
.......**...*.*..............................

Generation = 3, Population = 22.
.............................................
.............**.....................*........
.............**....................*.*.......
.............................................
.............................................
................*............................
.................*...........................
................*............................
...........................***...............
.......**....*.............***...............
.......**....*...............................

Generation = 4, Population = 18.
.............................................
.............**.....................*........
.............**.....................*........
.............................................
.............................................
.............................................
................**...........................
............................*................
...........................*.*...............
.......**..................*.*...............
.......**...................*................

*** Life<ConwayCell> 11x50 ***

Generation = 0, Population = 36.
.................*...*.*..........................
*....*.....*.......................*...*.......**.
.........................................*........
................*........*.......*................
.........*..............................*.......**
.*................................................
...................*.*....*..............**.....*.
......................................*.........*.
......*...*.....*.................................
....................*.......................*.....
......................*....*...*.......*..........

Generation = 1, Population = 3.
..................................................
..................................................
..................................................
..................................................
..................................................
.........................................*......**
..................................................
..................................................
..................................................
..................................................
..................................................

Generation = 2, Population = 0.
..................................................
..................................................
..................................................
..................................................
..................................................
..................................................
..................................................
..................................................
..................................................
..................................................
..................................................

Generation = 3, Population = 0.
..................................................
..................................................
..................................................
..................................................
..................................................
..................................................
..................................................
..................................................
..................................................
..................................................
..................................................

Generation = 4, Population = 0.
..................................................
..................................................
..................................................
..................................................
..................................................
..................................................
..................................................
..................................................
..................................................
..................................................
..................................................

Generation = 5, Population = 0.
..................................................
..................................................
..................................................
..................................................
..................................................
..................................................
..................................................
..................................................
..................................................
..................................................
..................................................

*** Life<ConwayCell> 57x22 ***

Generation = 0, Population = 45.
..*...................
....*.................
......................
..*...................
...*.*................
......................
......................
................*....*
...................*.*
......*...............
......................
......................
...*................*.
.......*........*.....
......*...............
.......**.........*...
..*.....*.............
....*.................
.....................*
............*.......*.
....................*.
......................
......................
......................
...................*..
......................
......................
...............*......
......................
......................
................*.....
......................
......................
............*.........
.*...........*........
....*.................
......................
......................
......*...**..........
......................
*.............*.......
*.......*.............
......................
................*.....
......................
......................
......................
....................*.
............*.........
................*.....
......................
...............*......
..................*...
......................
......................
......................
......................

Generation = 1, Population = 10.
......................
......................
......................
......................
......................
......................
......................
....................*.
....................*.
......................
......................
......................
......................
......................
......*.*.............
.......**.............
.......**.............
......................
......................
....................**
......................
......................
......................
......................
......................
......................
......................
......................
......................
......................
......................
......................
......................
......................
......................
......................
......................
......................
......................
......................
......................
......................
......................
......................
......................
......................
......................
......................
......................
......................
......................
......................
......................
......................
......................
......................
......................

Generation = 2, Population = 5.
......................
......................
......................
......................
......................
......................
......................
......................
......................
......................
......................
......................
......................
......................
........*.............
......*..*............
.......**.............
......................
......................
......................
......................
......................
......................
......................
......................
......................
......................
......................
......................
......................
......................
......................
......................
......................
......................
......................
......................
......................
......................
......................
......................
......................
......................
......................
......................
......................
......................
......................
......................
......................
......................
......................
......................
......................
......................
......................
......................

Generation = 3, Population = 3.
......................
......................
......................
......................
......................
......................
......................
......................
......................
......................
......................
......................
......................
......................
......................
.........*............
.......**.............
......................
......................
......................
......................
......................
......................
......................
......................
......................
......................
......................
......................
......................
......................
......................
......................
......................
......................
......................
......................
......................
......................
......................
......................
......................
......................
......................
......................
......................
......................
......................
......................
......................
......................
......................
......................
......................
......................
......................
......................

Generation = 4, Population = 2.
......................
......................
......................
......................
......................
......................
......................
......................
......................
......................
......................
......................
......................
......................
......................
........*.............
........*.............
......................
......................
......................
......................
......................
......................
......................
......................
......................
......................
......................
......................
......................
......................
......................
......................
......................
......................
......................
......................
......................
......................
......................
......................
......................
......................
......................
......................
......................
......................
......................
......................
......................
......................
......................
......................
......................
......................
......................
......................

*** Life<ConwayCell> 33x16 ***

Generation = 0, Population = 41.
.............*..
...........*..**
..*.............
.......*........
................
*...............
*.......*.*.....
...*............
................
...............*
................
....*........*..
...*.....*......
..*..*..........
.....*..........
.......*........
...............*
.*......*.......
................
.....*.......*..
..*.....*.......
.....*.........*
.............*..
.*..............
......*.........
................
.*....*.........
................
.....*..........
............*...
...*..*......*..
........*.......
..*.............

Generation = 1, Population = 6.
..............*.
..............*.
................
................
................
................
................
................
................
................
................
................
...**...........
....*...........
......*.........
................
................
................
................
................
................
................
................
................
................
................
................
................
................
................
................
................
................

Generation = 2, Population = 5.
................
................
................
................
................
................
................
................
................
................
................
................
...**...........
...***..........
................
................
................
................
................
................
................
................
................
................
................
................
................
................
................
................
................
................
................

Generation = 3, Population = 5.
................
................
................
................
................
................
................
................
................
................
................
................
...*.*..........
...*.*..........
....*...........
................
................
................
................
................
................
................
................
................
................
................
................
................
................
................
................
................
................

*** Life<ConwayCell> 28x48 ***

Generation = 0, Population = 37.
.......................*........................
............*...*...............................
................................................
.........*......................................
*...*.....*.......................*.............
.........*........*.............................
.............................**.*...............
............*......*............................
.....................................*..........
..*....*................*.......................
............*...................*...............
.............................................*..
................................................
...........*............*.......................
................*...............................
......................................*.........
................................................
......*.........................................
................................................
.......................*.......*............*...
....................*...........................
................................................
..............................................*.
............................*...........*.......
................*...............................
................................................
.........................*.........*............
................................................

Generation = 1, Population = 2.
................................................
................................................
................................................
................................................
.........**.....................................
................................................
................................................
................................................
................................................
................................................
................................................
................................................
................................................
................................................
................................................
................................................
................................................
................................................
................................................
................................................
................................................
................................................
................................................
................................................
................................................
................................................
................................................
................................................

Generation = 2, Population = 0.
................................................
................................................
................................................
................................................
................................................
................................................
................................................
................................................
................................................
................................................
................................................
................................................
................................................
................................................
................................................
................................................
................................................
................................................
................................................
................................................
................................................
................................................
................................................
................................................
................................................
................................................
................................................
................................................

Generation = 3, Population = 0.
................................................
................................................
................................................
................................................
................................................
................................................
................................................
................................................
................................................
................................................
................................................
................................................
................................................
................................................
................................................
................................................
................................................
................................................
................................................
................................................
................................................
................................................
................................................
................................................
................................................
................................................
................................................
................................................

Generation = 4, Population = 0.
................................................
................................................
................................................
................................................
................................................
................................................
................................................
................................................
................................................
................................................
................................................
................................................
................................................
................................................
................................................
................................................
................................................
................................................
................................................
................................................
................................................
................................................
................................................
................................................
................................................
................................................
................................................
................................................

Generation = 5, Population = 0.
................................................
................................................
................................................
................................................
................................................
................................................
................................................
................................................
................................................
................................................
................................................
................................................
................................................
................................................
................................................
................................................
................................................
................................................
................................................
................................................
................................................
................................................
................................................
................................................
................................................
................................................
................................................
................................................

Generation = 6, Population = 0.
................................................
................................................
................................................
................................................
................................................
................................................
................................................
................................................
................................................
................................................
................................................
................................................
................................................
................................................
................................................
................................................
................................................
................................................
................................................
................................................
................................................
................................................
................................................
................................................
................................................
................................................
................................................
................................................

*** Life<ConwayCell> 19x42 ***

Generation = 0, Population = 66.
............*............................*
...*.............................*........
.**............................*..........
..................*....*..................
..*..................................*....
....*..*.**.............*.................
..*.*.*.....................*.....*....*..
*....*......*..*.........*................
*...*..*.........*.....*.........*........
......*...*..*............................
...*.....*............*............*.....*
..................*.*...................*.
....*.....*............................*..
..*.................*..........*..........
...........*.....................*........
..................*.*.....*...*...*.....*.
.....*...........*....*........*........*.
.........................................*
.......................*........*.........

Generation = 1, Population = 20.
..........................................
..*.......................................
..*.......................................
.**.......................................
..........................................
.....*....................................
...**.*...................................
.*.****...................................
.....**...................................
..........................................
..........................................
........................................*.
...................*......................
..........................................
...................*......................
..........................................
........................................**
..........................................
..........................................

Generation = 2, Population = 13.
..........................................
..........................................
..**......................................
.**.......................................
..........................................
....**....................................
..**..*...................................
..**...*..................................
......*...................................
..........................................
..........................................
..........................................
..........................................
..........................................
..........................................
..........................................
..........................................
..........................................
..........................................

Generation = 3, Population = 16.
..........................................
..........................................
.***......................................
.***......................................
..........................................
...***....................................
..*..**...................................
..**..**..................................
..........................................
..........................................
..........................................
..........................................
..........................................
..........................................
..........................................
..........................................
..........................................
..........................................
..........................................

*** Life<ConwayCell> 37x47 ***

Generation = 0, Population = 76.
...............*......................*........
........................*.............*........
..............................**...............
.............................................**
......................*....*...................
..........*.......*........................*...
.................................*.............
...............................................
..........*.*...*..........................*...
.*.............................................
...............................................
...............................................
.......................*..*........*...........
...............................................
.........*.*.......*........*......*...........
...............................................
........*...............*......................
....*......*.......*............*..*.......*...
............*.........*......................*.
.*.............*..........*....**..............
...................................*...........
.......................**....................*.
............*..................................
.....................*.............*.....*.....
.........................*.....................
.*......*.............................*........
..............................*................
..**....................*........*.............
......*.......*.....*....*.....................
......................*.*...............*......
.........*............*........................
............*................................*.
*.............*................................
...............................................
...............................................
..........*..*.................................
...*...........................................

Generation = 1, Population = 9.
...............................................
...............................................
...............................................
...............................................
...............................................
...............................................
...............................................
...............................................
...............................................
...............................................
...............................................
...............................................
...............................................
...............................................
...............................................
...............................................
...............................................
...............................................
...............................**..............
...............................................
...............................................
...............................................
...............................................
...............................................
...............................................
...............................................
..*............................................
...............................................
.......................***.....................
.....................*.*.......................
.......................*.......................
...............................................
...............................................
...............................................
...............................................
...............................................
...............................................

Generation = 2, Population = 6.
...............................................
...............................................
...............................................
...............................................
...............................................
...............................................
...............................................
...............................................
...............................................
...............................................
...............................................
...............................................
...............................................
...............................................
...............................................
...............................................
...............................................
...............................................
...............................................
...............................................
...............................................
...............................................
...............................................
...............................................
...............................................
...............................................
...............................................
........................*......................
......................***......................
.......................*.......................
......................*........................
...............................................
...............................................
...............................................
...............................................
...............................................
...............................................

Generation = 3, Population = 4.
...............................................
...............................................
...............................................
...............................................
...............................................
...............................................
...............................................
...............................................
...............................................
...............................................
...............................................
...............................................
...............................................
...............................................
...............................................
...............................................
...............................................
...............................................
...............................................
...............................................
...............................................
...............................................
...............................................
...............................................
...............................................
...............................................
...............................................
........................*......................
......................*.*......................
........................*......................
...............................................
...............................................
...............................................
...............................................
...............................................
...............................................
...............................................

Generation = 4, Population = 4.
...............................................
...............................................
...............................................
...............................................
...............................................
...............................................
...............................................
...............................................
...............................................
...............................................
...............................................
...............................................
...............................................
...............................................
...............................................
...............................................
...............................................
...............................................
...............................................
...............................................
...............................................
...............................................
...............................................
...............................................
...............................................
...............................................
...............................................
.......................*.......................
........................**.....................
.......................*.......................
...............................................
...............................................
...............................................
...............................................
...............................................
...............................................
...............................................

Generation = 5, Population = 4.
...............................................
...............................................
...............................................
...............................................
...............................................
...............................................
...............................................
...............................................
...............................................
...............................................
...............................................
...............................................
...............................................
...............................................
...............................................
...............................................
...............................................
...............................................
...............................................
...............................................
...............................................
...............................................
...............................................
...............................................
...............................................
...............................................
...............................................
........................*......................
.......................**......................
........................*......................
...............................................
...............................................
...............................................
...............................................
...............................................
...............................................
...............................................

*** Life<ConwayCell> 57x21 ***

Generation = 0, Population = 35.
.....................
.....................
.....................
.........*...........
...................*.
.....................
.....................
...................*.
.....................
.....*...............
...............*.....
..*................*.
......*..............
.....................
....*..............*.
.....................
..*...*..............
.....................
.....................
.....................
....*................
.....................
.....................
....*................
.....................
.......*.............
.....*...............
.....................
..........*....*.....
.....................
.....................
.........*...........
.............*.......
.....................
.....................
.....................
.....................
.....................
.....................
.....................
.....................
.....................
.....................
.....................
............*........
......*..............
..............*......
...*.....*......*....
..*..................
..............*......
...........*.....*...
.....................
...............*.*.*.
.....................
.....................
.....................
.......*.........*...

Generation = 1, Population = 2.
.....................
.....................
.....................
.....................
.....................
.....................
.....................
.....................
.....................
.....................
.....................
.....................
.....................
.....................
.....................
.....................
.....................
.....................
.....................
.....................
.....................
.....................
.....................
.....................
.....................
.....................
.....................
.....................
.....................
.....................
.....................
.....................
.....................
.....................
.....................
.....................
.....................
.....................
.....................
.....................
.....................
.....................
.....................
.....................
.....................
.....................
.....................
.....................
.....................
.....................
.....................
................*.*..
.....................
.....................
.....................
.....................
.....................

Generation = 2, Population = 0.
.....................
.....................
.....................
.....................
.....................
.....................
.....................
.....................
.....................
.....................
.....................
.....................
.....................
.....................
.....................
.....................
.....................
.....................
.....................
.....................
.....................
.....................
.....................
.....................
.....................
.....................
.....................
.....................
.....................
.....................
.....................
.....................
.....................
.....................
.....................
.....................
.....................
.....................
.....................
.....................
.....................
.....................
.....................
.....................
.....................
.....................
.....................
.....................
.....................
.....................
.....................
.....................
.....................
.....................
.....................
.....................
.....................

Generation = 3, Population = 0.
.....................
.....................
.....................
.....................
.....................
.....................
.....................
.....................
.....................
.....................
.....................
.....................
.....................
.....................
.....................
.....................
.....................
.....................
.....................
.....................
.....................
.....................
.....................
.....................
.....................
.....................
.....................
.....................
.....................
.....................
.....................
.....................
.....................
.....................
.....................
.....................
.....................
.....................
.....................
.....................
.....................
.....................
.....................
.....................
.....................
.....................
.....................
.....................
.....................
.....................
.....................
.....................
.....................
.....................
.....................
.....................
.....................

*** Life<ConwayCell> 17x54 ***

Generation = 0, Population = 60.
...............................*......................
.*....................*......*......*..........*......
.....................*................................
.*..........................*..*.*....................
................*......................*...........*..
.....*.*...............*.......................*......
.*....*...........*....*.....*........................
.............*....*.......................*...........
..........*........*...............*..................
......................*.......................*.......
.......*..*.............*................*..*...*.....
.*......*...............**.........*..........*......*
......*...........................*...................
.......*.....*...*....................................
.....*................*...............................
........*...........*....*............................
.*...*....*.*...............*.....................*...

Generation = 1, Population = 14.
......................................................
......................................................
......................................................
......................................................
......................................................
......*...............................................
......*...............................................
..................**..................................
......................................................
......................................................
.......................***...................*.*......
.......*................**............................
.......*..............................................
......*...............................................
......................................................
......................................................
......................................................

Generation = 2, Population = 7.
......................................................
......................................................
......................................................
......................................................
......................................................
......................................................
......................................................
......................................................
......................................................
........................*.............................
.......................*.*............................
.......................*.*............................
......**..............................................
......................................................
......................................................
......................................................
......................................................

Generation = 3, Population = 3.
......................................................
......................................................
......................................................
......................................................
......................................................
......................................................
......................................................
......................................................
......................................................
........................*.............................
.......................*.*............................
......................................................
......................................................
......................................................
......................................................
......................................................
......................................................
